{
  "frames": {
    "BLACKMAGE0_DOWN_0": {
      "frame": {
        "x": 0,
        "y": 0,
        "w": 32,
        "h": 32
      },
      "rotated": false,
      "trimmed": false,
      "spriteSourceSize": {
        "x": 0,
        "y": 0,
        "w": 32,
        "h": 32
      },
      "sourceSize": {
        "w": 32,
        "h": 32
      }
    },
    "BLACKMAGE0_DOWN_1": {
      "frame": {
        "x": 32,
        "y": 0,
        "w": 32,
        "h": 32
      },
      "rotated": false,
      "trimmed": false,
      "spriteSourceSize": {
        "x": 0,
        "y": 0,
        "w": 32,
        "h": 32
      },
      "sourceSize": {
        "w": 32,
        "h": 32
      }
    },
    "BLACKMAGE0_DOWN_2": {
      "frame": {
        "x": 64,
        "y": 0,
        "w": 32,
        "h": 32
      },
      "rotated": false,
      "trimmed": false,
      "spriteSourceSize": {
        "x": 0,
        "y": 0,
        "w": 32,
        "h": 32
      },
      "sourceSize": {
        "w": 32,
        "h": 32
      }
    },
    "BLACKMAGE0_LEFT_0": {
      "frame": {
        "x": 0,
        "y": 32,
        "w": 32,
        "h": 32
      },
      "rotated": false,
      "trimmed": false,
      "spriteSourceSize": {
        "x": 0,
        "y": 0,
        "w": 32,
        "h": 32
      },
      "sourceSize": {
        "w": 32,
        "h": 32
      }
    },
    "BLACKMAGE0_LEFT_1": {
      "frame": {
        "x": 32,
        "y": 32,
        "w": 32,
        "h": 32
      },
      "rotated": false,
      "trimmed": false,
      "spriteSourceSize": {
        "x": 0,
        "y": 0,
        "w": 32,
        "h": 32
      },
      "sourceSize": {
        "w": 32,
        "h": 32
      }
    },
    "BLACKMAGE0_LEFT_2": {
      "frame": {
        "x": 64,
        "y": 32,
        "w": 32,
        "h": 32
      },
      "rotated": false,
      "trimmed": false,
      "spriteSourceSize": {
        "x": 0,
        "y": 0,
        "w": 32,
        "h": 32
      },
      "sourceSize": {
        "w": 32,
        "h": 32
      }
    },
    "BLACKMAGE0_RIGHT_0": {
      "frame": {
        "x": 0,
        "y": 64,
        "w": 32,
        "h": 32
      },
      "rotated": false,
      "trimmed": false,
      "spriteSourceSize": {
        "x": 0,
        "y": 0,
        "w": 32,
        "h": 32
      },
      "sourceSize": {
        "w": 32,
        "h": 32
      }
    },
    "BLACKMAGE0_RIGHT_1": {
      "frame": {
        "x": 32,
        "y": 64,
        "w": 32,
        "h": 32
      },
      "rotated": false,
      "trimmed": false,
      "spriteSourceSize": {
        "x": 0,
        "y": 0,
        "w": 32,
        "h": 32
      },
      "sourceSize": {
        "w": 32,
        "h": 32
      }
    },
    "BLACKMAGE0_RIGHT_2": {
      "frame": {
        "x": 64,
        "y": 64,
        "w": 32,
        "h": 32
      },
      "rotated": false,
      "trimmed": false,
      "spriteSourceSize": {
        "x": 0,
        "y": 0,
        "w": 32,
        "h": 32
      },
      "sourceSize": {
        "w": 32,
        "h": 32
      }
    },
    "BLACKMAGE0_TOP_0": {
      "frame": {
        "x": 0,
        "y": 96,
        "w": 32,
        "h": 32
      },
      "rotated": false,
      "trimmed": false,
      "spriteSourceSize": {
        "x": 0,
        "y": 0,
        "w": 32,
        "h": 32
      },
      "sourceSize": {
        "w": 32,
        "h": 32
      }
    },
    "BLACKMAGE0_TOP_1": {
      "frame": {
        "x": 32,
        "y": 96,
        "w": 32,
        "h": 32
      },
      "rotated": false,
      "trimmed": false,
      "spriteSourceSize": {
        "x": 0,
        "y": 0,
        "w": 32,
        "h": 32
      },
      "sourceSize": {
        "w": 32,
        "h": 32
      }
    },
    "BLACKMAGE0_TOP_2": {
      "frame": {
        "x": 64,
        "y": 96,
        "w": 32,
        "h": 32
      },
      "rotated": false,
      "trimmed": false,
      "spriteSourceSize": {
        "x": 0,
        "y": 0,
        "w": 32,
        "h": 32
      },
      "sourceSize": {
        "w": 32,
        "h": 32
      }
    },
    "BLACKMAGE1_DOWN_0": {
      "frame": {
        "x": 96,
        "y": 0,
        "w": 32,
        "h": 32
      },
      "rotated": false,
      "trimmed": false,
      "spriteSourceSize": {
        "x": 0,
        "y": 0,
        "w": 32,
        "h": 32
      },
      "sourceSize": {
        "w": 32,
        "h": 32
      }
    },
    "BLACKMAGE1_DOWN_1": {
      "frame": {
        "x": 128,
        "y": 0,
        "w": 32,
        "h": 32
      },
      "rotated": false,
      "trimmed": false,
      "spriteSourceSize": {
        "x": 0,
        "y": 0,
        "w": 32,
        "h": 32
      },
      "sourceSize": {
        "w": 32,
        "h": 32
      }
    },
    "BLACKMAGE1_DOWN_2": {
      "frame": {
        "x": 160,
        "y": 0,
        "w": 32,
        "h": 32
      },
      "rotated": false,
      "trimmed": false,
      "spriteSourceSize": {
        "x": 0,
        "y": 0,
        "w": 32,
        "h": 32
      },
      "sourceSize": {
        "w": 32,
        "h": 32
      }
    },
    "BLACKMAGE1_LEFT_0": {
      "frame": {
        "x": 96,
        "y": 32,
        "w": 32,
        "h": 32
      },
      "rotated": false,
      "trimmed": false,
      "spriteSourceSize": {
        "x": 0,
        "y": 0,
        "w": 32,
        "h": 32
      },
      "sourceSize": {
        "w": 32,
        "h": 32
      }
    },
    "BLACKMAGE1_LEFT_1": {
      "frame": {
        "x": 128,
        "y": 32,
        "w": 32,
        "h": 32
      },
      "rotated": false,
      "trimmed": false,
      "spriteSourceSize": {
        "x": 0,
        "y": 0,
        "w": 32,
        "h": 32
      },
      "sourceSize": {
        "w": 32,
        "h": 32
      }
    },
    "BLACKMAGE1_LEFT_2": {
      "frame": {
        "x": 160,
        "y": 32,
        "w": 32,
        "h": 32
      },
      "rotated": false,
      "trimmed": false,
      "spriteSourceSize": {
        "x": 0,
        "y": 0,
        "w": 32,
        "h": 32
      },
      "sourceSize": {
        "w": 32,
        "h": 32
      }
    },
    "BLACKMAGE1_RIGHT_0": {
      "frame": {
        "x": 96,
        "y": 64,
        "w": 32,
        "h": 32
      },
      "rotated": false,
      "trimmed": false,
      "spriteSourceSize": {
        "x": 0,
        "y": 0,
        "w": 32,
        "h": 32
      },
      "sourceSize": {
        "w": 32,
        "h": 32
      }
    },
    "BLACKMAGE1_RIGHT_1": {
      "frame": {
        "x": 128,
        "y": 64,
        "w": 32,
        "h": 32
      },
      "rotated": false,
      "trimmed": false,
      "spriteSourceSize": {
        "x": 0,
        "y": 0,
        "w": 32,
        "h": 32
      },
      "sourceSize": {
        "w": 32,
        "h": 32
      }
    },
    "BLACKMAGE1_RIGHT_2": {
      "frame": {
        "x": 160,
        "y": 64,
        "w": 32,
        "h": 32
      },
      "rotated": false,
      "trimmed": false,
      "spriteSourceSize": {
        "x": 0,
        "y": 0,
        "w": 32,
        "h": 32
      },
      "sourceSize": {
        "w": 32,
        "h": 32
      }
    },
    "BLACKMAGE1_TOP_0": {
      "frame": {
        "x": 96,
        "y": 96,
        "w": 32,
        "h": 32
      },
      "rotated": false,
      "trimmed": false,
      "spriteSourceSize": {
        "x": 0,
        "y": 0,
        "w": 32,
        "h": 32
      },
      "sourceSize": {
        "w": 32,
        "h": 32
      }
    },
    "BLACKMAGE1_TOP_1": {
      "frame": {
        "x": 128,
        "y": 96,
        "w": 32,
        "h": 32
      },
      "rotated": false,
      "trimmed": false,
      "spriteSourceSize": {
        "x": 0,
        "y": 0,
        "w": 32,
        "h": 32
      },
      "sourceSize": {
        "w": 32,
        "h": 32
      }
    },
    "BLACKMAGE1_TOP_2": {
      "frame": {
        "x": 160,
        "y": 96,
        "w": 32,
        "h": 32
      },
      "rotated": false,
      "trimmed": false,
      "spriteSourceSize": {
        "x": 0,
        "y": 0,
        "w": 32,
        "h": 32
      },
      "sourceSize": {
        "w": 32,
        "h": 32
      }
    },
    "BLACKMAGE2_DOWN_0": {
      "frame": {
        "x": 192,
        "y": 0,
        "w": 32,
        "h": 32
      },
      "rotated": false,
      "trimmed": false,
      "spriteSourceSize": {
        "x": 0,
        "y": 0,
        "w": 32,
        "h": 32
      },
      "sourceSize": {
        "w": 32,
        "h": 32
      }
    },
    "BLACKMAGE2_DOWN_1": {
      "frame": {
        "x": 224,
        "y": 0,
        "w": 32,
        "h": 32
      },
      "rotated": false,
      "trimmed": false,
      "spriteSourceSize": {
        "x": 0,
        "y": 0,
        "w": 32,
        "h": 32
      },
      "sourceSize": {
        "w": 32,
        "h": 32
      }
    },
    "BLACKMAGE2_DOWN_2": {
      "frame": {
        "x": 256,
        "y": 0,
        "w": 32,
        "h": 32
      },
      "rotated": false,
      "trimmed": false,
      "spriteSourceSize": {
        "x": 0,
        "y": 0,
        "w": 32,
        "h": 32
      },
      "sourceSize": {
        "w": 32,
        "h": 32
      }
    },
    "BLACKMAGE2_LEFT_0": {
      "frame": {
        "x": 192,
        "y": 32,
        "w": 32,
        "h": 32
      },
      "rotated": false,
      "trimmed": false,
      "spriteSourceSize": {
        "x": 0,
        "y": 0,
        "w": 32,
        "h": 32
      },
      "sourceSize": {
        "w": 32,
        "h": 32
      }
    },
    "BLACKMAGE2_LEFT_1": {
      "frame": {
        "x": 224,
        "y": 32,
        "w": 32,
        "h": 32
      },
      "rotated": false,
      "trimmed": false,
      "spriteSourceSize": {
        "x": 0,
        "y": 0,
        "w": 32,
        "h": 32
      },
      "sourceSize": {
        "w": 32,
        "h": 32
      }
    },
    "BLACKMAGE2_LEFT_2": {
      "frame": {
        "x": 256,
        "y": 32,
        "w": 32,
        "h": 32
      },
      "rotated": false,
      "trimmed": false,
      "spriteSourceSize": {
        "x": 0,
        "y": 0,
        "w": 32,
        "h": 32
      },
      "sourceSize": {
        "w": 32,
        "h": 32
      }
    },
    "BLACKMAGE2_RIGHT_0": {
      "frame": {
        "x": 192,
        "y": 64,
        "w": 32,
        "h": 32
      },
      "rotated": false,
      "trimmed": false,
      "spriteSourceSize": {
        "x": 0,
        "y": 0,
        "w": 32,
        "h": 32
      },
      "sourceSize": {
        "w": 32,
        "h": 32
      }
    },
    "BLACKMAGE2_RIGHT_1": {
      "frame": {
        "x": 224,
        "y": 64,
        "w": 32,
        "h": 32
      },
      "rotated": false,
      "trimmed": false,
      "spriteSourceSize": {
        "x": 0,
        "y": 0,
        "w": 32,
        "h": 32
      },
      "sourceSize": {
        "w": 32,
        "h": 32
      }
    },
    "BLACKMAGE2_RIGHT_2": {
      "frame": {
        "x": 256,
        "y": 64,
        "w": 32,
        "h": 32
      },
      "rotated": false,
      "trimmed": false,
      "spriteSourceSize": {
        "x": 0,
        "y": 0,
        "w": 32,
        "h": 32
      },
      "sourceSize": {
        "w": 32,
        "h": 32
      }
    },
    "BLACKMAGE2_TOP_0": {
      "frame": {
        "x": 192,
        "y": 96,
        "w": 32,
        "h": 32
      },
      "rotated": false,
      "trimmed": false,
      "spriteSourceSize": {
        "x": 0,
        "y": 0,
        "w": 32,
        "h": 32
      },
      "sourceSize": {
        "w": 32,
        "h": 32
      }
    },
    "BLACKMAGE2_TOP_1": {
      "frame": {
        "x": 224,
        "y": 96,
        "w": 32,
        "h": 32
      },
      "rotated": false,
      "trimmed": false,
      "spriteSourceSize": {
        "x": 0,
        "y": 0,
        "w": 32,
        "h": 32
      },
      "sourceSize": {
        "w": 32,
        "h": 32
      }
    },
    "BLACKMAGE2_TOP_2": {
      "frame": {
        "x": 256,
        "y": 96,
        "w": 32,
        "h": 32
      },
      "rotated": false,
      "trimmed": false,
      "spriteSourceSize": {
        "x": 0,
        "y": 0,
        "w": 32,
        "h": 32
      },
      "sourceSize": {
        "w": 32,
        "h": 32
      }
    },
    "BLACKMAGE3_DOWN_0": {
      "frame": {
        "x": 288,
        "y": 0,
        "w": 32,
        "h": 32
      },
      "rotated": false,
      "trimmed": false,
      "spriteSourceSize": {
        "x": 0,
        "y": 0,
        "w": 32,
        "h": 32
      },
      "sourceSize": {
        "w": 32,
        "h": 32
      }
    },
    "BLACKMAGE3_DOWN_1": {
      "frame": {
        "x": 320,
        "y": 0,
        "w": 32,
        "h": 32
      },
      "rotated": false,
      "trimmed": false,
      "spriteSourceSize": {
        "x": 0,
        "y": 0,
        "w": 32,
        "h": 32
      },
      "sourceSize": {
        "w": 32,
        "h": 32
      }
    },
    "BLACKMAGE3_DOWN_2": {
      "frame": {
        "x": 352,
        "y": 0,
        "w": 32,
        "h": 32
      },
      "rotated": false,
      "trimmed": false,
      "spriteSourceSize": {
        "x": 0,
        "y": 0,
        "w": 32,
        "h": 32
      },
      "sourceSize": {
        "w": 32,
        "h": 32
      }
    },
    "BLACKMAGE3_LEFT_0": {
      "frame": {
        "x": 288,
        "y": 32,
        "w": 32,
        "h": 32
      },
      "rotated": false,
      "trimmed": false,
      "spriteSourceSize": {
        "x": 0,
        "y": 0,
        "w": 32,
        "h": 32
      },
      "sourceSize": {
        "w": 32,
        "h": 32
      }
    },
    "BLACKMAGE3_LEFT_1": {
      "frame": {
        "x": 320,
        "y": 32,
        "w": 32,
        "h": 32
      },
      "rotated": false,
      "trimmed": false,
      "spriteSourceSize": {
        "x": 0,
        "y": 0,
        "w": 32,
        "h": 32
      },
      "sourceSize": {
        "w": 32,
        "h": 32
      }
    },
    "BLACKMAGE3_LEFT_2": {
      "frame": {
        "x": 352,
        "y": 32,
        "w": 32,
        "h": 32
      },
      "rotated": false,
      "trimmed": false,
      "spriteSourceSize": {
        "x": 0,
        "y": 0,
        "w": 32,
        "h": 32
      },
      "sourceSize": {
        "w": 32,
        "h": 32
      }
    },
    "BLACKMAGE3_RIGHT_0": {
      "frame": {
        "x": 288,
        "y": 64,
        "w": 32,
        "h": 32
      },
      "rotated": false,
      "trimmed": false,
      "spriteSourceSize": {
        "x": 0,
        "y": 0,
        "w": 32,
        "h": 32
      },
      "sourceSize": {
        "w": 32,
        "h": 32
      }
    },
    "BLACKMAGE3_RIGHT_1": {
      "frame": {
        "x": 320,
        "y": 64,
        "w": 32,
        "h": 32
      },
      "rotated": false,
      "trimmed": false,
      "spriteSourceSize": {
        "x": 0,
        "y": 0,
        "w": 32,
        "h": 32
      },
      "sourceSize": {
        "w": 32,
        "h": 32
      }
    },
    "BLACKMAGE3_RIGHT_2": {
      "frame": {
        "x": 352,
        "y": 64,
        "w": 32,
        "h": 32
      },
      "rotated": false,
      "trimmed": false,
      "spriteSourceSize": {
        "x": 0,
        "y": 0,
        "w": 32,
        "h": 32
      },
      "sourceSize": {
        "w": 32,
        "h": 32
      }
    },
    "BLACKMAGE3_TOP_0": {
      "frame": {
        "x": 288,
        "y": 96,
        "w": 32,
        "h": 32
      },
      "rotated": false,
      "trimmed": false,
      "spriteSourceSize": {
        "x": 0,
        "y": 0,
        "w": 32,
        "h": 32
      },
      "sourceSize": {
        "w": 32,
        "h": 32
      }
    },
    "BLACKMAGE3_TOP_1": {
      "frame": {
        "x": 320,
        "y": 96,
        "w": 32,
        "h": 32
      },
      "rotated": false,
      "trimmed": false,
      "spriteSourceSize": {
        "x": 0,
        "y": 0,
        "w": 32,
        "h": 32
      },
      "sourceSize": {
        "w": 32,
        "h": 32
      }
    },
    "BLACKMAGE3_TOP_2": {
      "frame": {
        "x": 352,
        "y": 96,
        "w": 32,
        "h": 32
      },
      "rotated": false,
      "trimmed": false,
      "spriteSourceSize": {
        "x": 0,
        "y": 0,
        "w": 32,
        "h": 32
      },
      "sourceSize": {
        "w": 32,
        "h": 32
      }
    },
    "BLACKMAGE4_DOWN_0": {
      "frame": {
        "x": 0,
        "y": 128,
        "w": 32,
        "h": 32
      },
      "rotated": false,
      "trimmed": false,
      "spriteSourceSize": {
        "x": 0,
        "y": 0,
        "w": 32,
        "h": 32
      },
      "sourceSize": {
        "w": 32,
        "h": 32
      }
    },
    "BLACKMAGE4_DOWN_1": {
      "frame": {
        "x": 32,
        "y": 128,
        "w": 32,
        "h": 32
      },
      "rotated": false,
      "trimmed": false,
      "spriteSourceSize": {
        "x": 0,
        "y": 0,
        "w": 32,
        "h": 32
      },
      "sourceSize": {
        "w": 32,
        "h": 32
      }
    },
    "BLACKMAGE4_DOWN_2": {
      "frame": {
        "x": 64,
        "y": 128,
        "w": 32,
        "h": 32
      },
      "rotated": false,
      "trimmed": false,
      "spriteSourceSize": {
        "x": 0,
        "y": 0,
        "w": 32,
        "h": 32
      },
      "sourceSize": {
        "w": 32,
        "h": 32
      }
    },
    "BLACKMAGE4_LEFT_0": {
      "frame": {
        "x": 0,
        "y": 160,
        "w": 32,
        "h": 32
      },
      "rotated": false,
      "trimmed": false,
      "spriteSourceSize": {
        "x": 0,
        "y": 0,
        "w": 32,
        "h": 32
      },
      "sourceSize": {
        "w": 32,
        "h": 32
      }
    },
    "BLACKMAGE4_LEFT_1": {
      "frame": {
        "x": 32,
        "y": 160,
        "w": 32,
        "h": 32
      },
      "rotated": false,
      "trimmed": false,
      "spriteSourceSize": {
        "x": 0,
        "y": 0,
        "w": 32,
        "h": 32
      },
      "sourceSize": {
        "w": 32,
        "h": 32
      }
    },
    "BLACKMAGE4_LEFT_2": {
      "frame": {
        "x": 64,
        "y": 160,
        "w": 32,
        "h": 32
      },
      "rotated": false,
      "trimmed": false,
      "spriteSourceSize": {
        "x": 0,
        "y": 0,
        "w": 32,
        "h": 32
      },
      "sourceSize": {
        "w": 32,
        "h": 32
      }
    },
    "BLACKMAGE4_RIGHT_0": {
      "frame": {
        "x": 0,
        "y": 192,
        "w": 32,
        "h": 32
      },
      "rotated": false,
      "trimmed": false,
      "spriteSourceSize": {
        "x": 0,
        "y": 0,
        "w": 32,
        "h": 32
      },
      "sourceSize": {
        "w": 32,
        "h": 32
      }
    },
    "BLACKMAGE4_RIGHT_1": {
      "frame": {
        "x": 32,
        "y": 192,
        "w": 32,
        "h": 32
      },
      "rotated": false,
      "trimmed": false,
      "spriteSourceSize": {
        "x": 0,
        "y": 0,
        "w": 32,
        "h": 32
      },
      "sourceSize": {
        "w": 32,
        "h": 32
      }
    },
    "BLACKMAGE4_RIGHT_2": {
      "frame": {
        "x": 64,
        "y": 192,
        "w": 32,
        "h": 32
      },
      "rotated": false,
      "trimmed": false,
      "spriteSourceSize": {
        "x": 0,
        "y": 0,
        "w": 32,
        "h": 32
      },
      "sourceSize": {
        "w": 32,
        "h": 32
      }
    },
    "BLACKMAGE4_TOP_0": {
      "frame": {
        "x": 0,
        "y": 224,
        "w": 32,
        "h": 32
      },
      "rotated": false,
      "trimmed": false,
      "spriteSourceSize": {
        "x": 0,
        "y": 0,
        "w": 32,
        "h": 32
      },
      "sourceSize": {
        "w": 32,
        "h": 32
      }
    },
    "BLACKMAGE4_TOP_1": {
      "frame": {
        "x": 32,
        "y": 224,
        "w": 32,
        "h": 32
      },
      "rotated": false,
      "trimmed": false,
      "spriteSourceSize": {
        "x": 0,
        "y": 0,
        "w": 32,
        "h": 32
      },
      "sourceSize": {
        "w": 32,
        "h": 32
      }
    },
    "BLACKMAGE4_TOP_2": {
      "frame": {
        "x": 64,
        "y": 224,
        "w": 32,
        "h": 32
      },
      "rotated": false,
      "trimmed": false,
      "spriteSourceSize": {
        "x": 0,
        "y": 0,
        "w": 32,
        "h": 32
      },
      "sourceSize": {
        "w": 32,
        "h": 32
      }
    },
    "BLACKMAGE5_DOWN_0": {
      "frame": {
        "x": 96,
        "y": 128,
        "w": 32,
        "h": 32
      },
      "rotated": false,
      "trimmed": false,
      "spriteSourceSize": {
        "x": 0,
        "y": 0,
        "w": 32,
        "h": 32
      },
      "sourceSize": {
        "w": 32,
        "h": 32
      }
    },
    "BLACKMAGE5_DOWN_1": {
      "frame": {
        "x": 128,
        "y": 128,
        "w": 32,
        "h": 32
      },
      "rotated": false,
      "trimmed": false,
      "spriteSourceSize": {
        "x": 0,
        "y": 0,
        "w": 32,
        "h": 32
      },
      "sourceSize": {
        "w": 32,
        "h": 32
      }
    },
    "BLACKMAGE5_DOWN_2": {
      "frame": {
        "x": 160,
        "y": 128,
        "w": 32,
        "h": 32
      },
      "rotated": false,
      "trimmed": false,
      "spriteSourceSize": {
        "x": 0,
        "y": 0,
        "w": 32,
        "h": 32
      },
      "sourceSize": {
        "w": 32,
        "h": 32
      }
    },
    "BLACKMAGE5_LEFT_0": {
      "frame": {
        "x": 96,
        "y": 160,
        "w": 32,
        "h": 32
      },
      "rotated": false,
      "trimmed": false,
      "spriteSourceSize": {
        "x": 0,
        "y": 0,
        "w": 32,
        "h": 32
      },
      "sourceSize": {
        "w": 32,
        "h": 32
      }
    },
    "BLACKMAGE5_LEFT_1": {
      "frame": {
        "x": 128,
        "y": 160,
        "w": 32,
        "h": 32
      },
      "rotated": false,
      "trimmed": false,
      "spriteSourceSize": {
        "x": 0,
        "y": 0,
        "w": 32,
        "h": 32
      },
      "sourceSize": {
        "w": 32,
        "h": 32
      }
    },
    "BLACKMAGE5_LEFT_2": {
      "frame": {
        "x": 160,
        "y": 160,
        "w": 32,
        "h": 32
      },
      "rotated": false,
      "trimmed": false,
      "spriteSourceSize": {
        "x": 0,
        "y": 0,
        "w": 32,
        "h": 32
      },
      "sourceSize": {
        "w": 32,
        "h": 32
      }
    },
    "BLACKMAGE5_RIGHT_0": {
      "frame": {
        "x": 96,
        "y": 192,
        "w": 32,
        "h": 32
      },
      "rotated": false,
      "trimmed": false,
      "spriteSourceSize": {
        "x": 0,
        "y": 0,
        "w": 32,
        "h": 32
      },
      "sourceSize": {
        "w": 32,
        "h": 32
      }
    },
    "BLACKMAGE5_RIGHT_1": {
      "frame": {
        "x": 128,
        "y": 192,
        "w": 32,
        "h": 32
      },
      "rotated": false,
      "trimmed": false,
      "spriteSourceSize": {
        "x": 0,
        "y": 0,
        "w": 32,
        "h": 32
      },
      "sourceSize": {
        "w": 32,
        "h": 32
      }
    },
    "BLACKMAGE5_RIGHT_2": {
      "frame": {
        "x": 160,
        "y": 192,
        "w": 32,
        "h": 32
      },
      "rotated": false,
      "trimmed": false,
      "spriteSourceSize": {
        "x": 0,
        "y": 0,
        "w": 32,
        "h": 32
      },
      "sourceSize": {
        "w": 32,
        "h": 32
      }
    },
    "BLACKMAGE5_TOP_0": {
      "frame": {
        "x": 96,
        "y": 224,
        "w": 32,
        "h": 32
      },
      "rotated": false,
      "trimmed": false,
      "spriteSourceSize": {
        "x": 0,
        "y": 0,
        "w": 32,
        "h": 32
      },
      "sourceSize": {
        "w": 32,
        "h": 32
      }
    },
    "BLACKMAGE5_TOP_1": {
      "frame": {
        "x": 128,
        "y": 224,
        "w": 32,
        "h": 32
      },
      "rotated": false,
      "trimmed": false,
      "spriteSourceSize": {
        "x": 0,
        "y": 0,
        "w": 32,
        "h": 32
      },
      "sourceSize": {
        "w": 32,
        "h": 32
      }
    },
    "BLACKMAGE5_TOP_2": {
      "frame": {
        "x": 160,
        "y": 224,
        "w": 32,
        "h": 32
      },
      "rotated": false,
      "trimmed": false,
      "spriteSourceSize": {
        "x": 0,
        "y": 0,
        "w": 32,
        "h": 32
      },
      "sourceSize": {
        "w": 32,
        "h": 32
      }
    },
    "BLACKMAGE6_DOWN_0": {
      "frame": {
        "x": 192,
        "y": 128,
        "w": 32,
        "h": 32
      },
      "rotated": false,
      "trimmed": false,
      "spriteSourceSize": {
        "x": 0,
        "y": 0,
        "w": 32,
        "h": 32
      },
      "sourceSize": {
        "w": 32,
        "h": 32
      }
    },
    "BLACKMAGE6_DOWN_1": {
      "frame": {
        "x": 224,
        "y": 128,
        "w": 32,
        "h": 32
      },
      "rotated": false,
      "trimmed": false,
      "spriteSourceSize": {
        "x": 0,
        "y": 0,
        "w": 32,
        "h": 32
      },
      "sourceSize": {
        "w": 32,
        "h": 32
      }
    },
    "BLACKMAGE6_DOWN_2": {
      "frame": {
        "x": 256,
        "y": 128,
        "w": 32,
        "h": 32
      },
      "rotated": false,
      "trimmed": false,
      "spriteSourceSize": {
        "x": 0,
        "y": 0,
        "w": 32,
        "h": 32
      },
      "sourceSize": {
        "w": 32,
        "h": 32
      }
    },
    "BLACKMAGE6_LEFT_0": {
      "frame": {
        "x": 192,
        "y": 160,
        "w": 32,
        "h": 32
      },
      "rotated": false,
      "trimmed": false,
      "spriteSourceSize": {
        "x": 0,
        "y": 0,
        "w": 32,
        "h": 32
      },
      "sourceSize": {
        "w": 32,
        "h": 32
      }
    },
    "BLACKMAGE6_LEFT_1": {
      "frame": {
        "x": 224,
        "y": 160,
        "w": 32,
        "h": 32
      },
      "rotated": false,
      "trimmed": false,
      "spriteSourceSize": {
        "x": 0,
        "y": 0,
        "w": 32,
        "h": 32
      },
      "sourceSize": {
        "w": 32,
        "h": 32
      }
    },
    "BLACKMAGE6_LEFT_2": {
      "frame": {
        "x": 256,
        "y": 160,
        "w": 32,
        "h": 32
      },
      "rotated": false,
      "trimmed": false,
      "spriteSourceSize": {
        "x": 0,
        "y": 0,
        "w": 32,
        "h": 32
      },
      "sourceSize": {
        "w": 32,
        "h": 32
      }
    },
    "BLACKMAGE6_RIGHT_0": {
      "frame": {
        "x": 192,
        "y": 192,
        "w": 32,
        "h": 32
      },
      "rotated": false,
      "trimmed": false,
      "spriteSourceSize": {
        "x": 0,
        "y": 0,
        "w": 32,
        "h": 32
      },
      "sourceSize": {
        "w": 32,
        "h": 32
      }
    },
    "BLACKMAGE6_RIGHT_1": {
      "frame": {
        "x": 224,
        "y": 192,
        "w": 32,
        "h": 32
      },
      "rotated": false,
      "trimmed": false,
      "spriteSourceSize": {
        "x": 0,
        "y": 0,
        "w": 32,
        "h": 32
      },
      "sourceSize": {
        "w": 32,
        "h": 32
      }
    },
    "BLACKMAGE6_RIGHT_2": {
      "frame": {
        "x": 256,
        "y": 192,
        "w": 32,
        "h": 32
      },
      "rotated": false,
      "trimmed": false,
      "spriteSourceSize": {
        "x": 0,
        "y": 0,
        "w": 32,
        "h": 32
      },
      "sourceSize": {
        "w": 32,
        "h": 32
      }
    },
    "BLACKMAGE6_TOP_0": {
      "frame": {
        "x": 192,
        "y": 224,
        "w": 32,
        "h": 32
      },
      "rotated": false,
      "trimmed": false,
      "spriteSourceSize": {
        "x": 0,
        "y": 0,
        "w": 32,
        "h": 32
      },
      "sourceSize": {
        "w": 32,
        "h": 32
      }
    },
    "BLACKMAGE6_TOP_1": {
      "frame": {
        "x": 224,
        "y": 224,
        "w": 32,
        "h": 32
      },
      "rotated": false,
      "trimmed": false,
      "spriteSourceSize": {
        "x": 0,
        "y": 0,
        "w": 32,
        "h": 32
      },
      "sourceSize": {
        "w": 32,
        "h": 32
      }
    },
    "BLACKMAGE6_TOP_2": {
      "frame": {
        "x": 256,
        "y": 224,
        "w": 32,
        "h": 32
      },
      "rotated": false,
      "trimmed": false,
      "spriteSourceSize": {
        "x": 0,
        "y": 0,
        "w": 32,
        "h": 32
      },
      "sourceSize": {
        "w": 32,
        "h": 32
      }
    },
    "BLACKMAGE7_DOWN_0": {
      "frame": {
        "x": 288,
        "y": 128,
        "w": 32,
        "h": 32
      },
      "rotated": false,
      "trimmed": false,
      "spriteSourceSize": {
        "x": 0,
        "y": 0,
        "w": 32,
        "h": 32
      },
      "sourceSize": {
        "w": 32,
        "h": 32
      }
    },
    "BLACKMAGE7_DOWN_1": {
      "frame": {
        "x": 320,
        "y": 128,
        "w": 32,
        "h": 32
      },
      "rotated": false,
      "trimmed": false,
      "spriteSourceSize": {
        "x": 0,
        "y": 0,
        "w": 32,
        "h": 32
      },
      "sourceSize": {
        "w": 32,
        "h": 32
      }
    },
    "BLACKMAGE7_DOWN_2": {
      "frame": {
        "x": 352,
        "y": 128,
        "w": 32,
        "h": 32
      },
      "rotated": false,
      "trimmed": false,
      "spriteSourceSize": {
        "x": 0,
        "y": 0,
        "w": 32,
        "h": 32
      },
      "sourceSize": {
        "w": 32,
        "h": 32
      }
    },
    "BLACKMAGE7_LEFT_0": {
      "frame": {
        "x": 288,
        "y": 160,
        "w": 32,
        "h": 32
      },
      "rotated": false,
      "trimmed": false,
      "spriteSourceSize": {
        "x": 0,
        "y": 0,
        "w": 32,
        "h": 32
      },
      "sourceSize": {
        "w": 32,
        "h": 32
      }
    },
    "BLACKMAGE7_LEFT_1": {
      "frame": {
        "x": 320,
        "y": 160,
        "w": 32,
        "h": 32
      },
      "rotated": false,
      "trimmed": false,
      "spriteSourceSize": {
        "x": 0,
        "y": 0,
        "w": 32,
        "h": 32
      },
      "sourceSize": {
        "w": 32,
        "h": 32
      }
    },
    "BLACKMAGE7_LEFT_2": {
      "frame": {
        "x": 352,
        "y": 160,
        "w": 32,
        "h": 32
      },
      "rotated": false,
      "trimmed": false,
      "spriteSourceSize": {
        "x": 0,
        "y": 0,
        "w": 32,
        "h": 32
      },
      "sourceSize": {
        "w": 32,
        "h": 32
      }
    },
    "BLACKMAGE7_RIGHT_0": {
      "frame": {
        "x": 288,
        "y": 192,
        "w": 32,
        "h": 32
      },
      "rotated": false,
      "trimmed": false,
      "spriteSourceSize": {
        "x": 0,
        "y": 0,
        "w": 32,
        "h": 32
      },
      "sourceSize": {
        "w": 32,
        "h": 32
      }
    },
    "BLACKMAGE7_RIGHT_1": {
      "frame": {
        "x": 320,
        "y": 192,
        "w": 32,
        "h": 32
      },
      "rotated": false,
      "trimmed": false,
      "spriteSourceSize": {
        "x": 0,
        "y": 0,
        "w": 32,
        "h": 32
      },
      "sourceSize": {
        "w": 32,
        "h": 32
      }
    },
    "BLACKMAGE7_RIGHT_2": {
      "frame": {
        "x": 352,
        "y": 192,
        "w": 32,
        "h": 32
      },
      "rotated": false,
      "trimmed": false,
      "spriteSourceSize": {
        "x": 0,
        "y": 0,
        "w": 32,
        "h": 32
      },
      "sourceSize": {
        "w": 32,
        "h": 32
      }
    },
    "BLACKMAGE7_TOP_0": {
      "frame": {
        "x": 288,
        "y": 224,
        "w": 32,
        "h": 32
      },
      "rotated": false,
      "trimmed": false,
      "spriteSourceSize": {
        "x": 0,
        "y": 0,
        "w": 32,
        "h": 32
      },
      "sourceSize": {
        "w": 32,
        "h": 32
      }
    },
    "BLACKMAGE7_TOP_1": {
      "frame": {
        "x": 320,
        "y": 224,
        "w": 32,
        "h": 32
      },
      "rotated": false,
      "trimmed": false,
      "spriteSourceSize": {
        "x": 0,
        "y": 0,
        "w": 32,
        "h": 32
      },
      "sourceSize": {
        "w": 32,
        "h": 32
      }
    },
    "BLACKMAGE7_TOP_2": {
      "frame": {
        "x": 352,
        "y": 224,
        "w": 32,
        "h": 32
      },
      "rotated": false,
      "trimmed": false,
      "spriteSourceSize": {
        "x": 0,
        "y": 0,
        "w": 32,
        "h": 32
      },
      "sourceSize": {
        "w": 32,
        "h": 32
      }
    }
  },
  "meta": {
    "app": "script by will",
    "version": "1.0",
    "image": "blackmage.png",
    "size": {
      "w": 384,
      "h": 256
    },
    "scale": 1
  }
}