{
    "$schema": "http://json-schema.org/draft-04/schema",
    "title" : "GClient",
    "type" : "object",
    "definitions" : {
        "GClient" : {
            "uuid" : "string" ,
            "position" : "##Position",
            "direction" : "##Position"
        },
        "Position" : {
            "x" : "number" ,
            "y" : "number"
        }
    }
}